\relax 
\@writefile{toc}{\contentsline {section}{\numberline {A}Appendix: {\tt  MC-TESTER} setup and input parameters}{24}}
\newlabel{appendix.A}{{A}{24}}
\newlabel{SETUP.C_FORMAT_AND_USE}{{A.1}{24}}
\@writefile{toc}{\contentsline {subsection}{\numberline {A.1}Format and use of the {\tt  SETUP.C} file}{24}}
\@writefile{toc}{\contentsline {subsection}{\numberline {A.2}Definition of parameters in the {\tt  SETUP.C} file}{24}}
\newlabel{appendix.Setup-parameters}{{A.2}{24}}
\@writefile{toc}{\contentsline {subsubsection}{\numberline {A.2.1}Setup::decay\_particle }{24}}
\@writefile{toc}{\contentsline {subsubsection}{\numberline {A.2.2}Setup::EVENT }{24}}
\@writefile{toc}{\contentsline {subsubsection}{\numberline {A.2.3}Setup::stage }{25}}
\@writefile{toc}{\contentsline {subsubsection}{\numberline {A.2.4}Setup::gen1\_desc\_1 , Setup::gen1\_desc\_2, Setup::gen1\_desc\_3}{25}}
\@writefile{toc}{\contentsline {subsubsection}{\numberline {A.2.5}Setup::gen2\_desc\_1, Setup::gen2\_desc\_2, Setup::gen2\_desc\_3}{26}}
\@writefile{toc}{\contentsline {subsubsection}{\numberline {A.2.6}Setup::result1\_path}{26}}
\newlabel{appendix.S.result1-path}{{A.2.6}{26}}
\@writefile{toc}{\contentsline {subsubsection}{\numberline {A.2.7}Setup::result2\_path}{26}}
\newlabel{appendix.S.result2-path}{{A.2.7}{26}}
\@writefile{toc}{\contentsline {subsubsection}{\numberline {A.2.8}Setup::order\_matters}{26}}
\@writefile{toc}{\contentsline {subsubsection}{\numberline {A.2.9}Setup::nbins}{27}}
\@writefile{toc}{\contentsline {subsubsection}{\numberline {A.2.10}Setup::bin\_min}{27}}
\@writefile{toc}{\contentsline {subsubsection}{\numberline {A.2.11}Setup::bin\_max}{28}}
\@writefile{toc}{\contentsline {subsubsection}{\numberline {A.2.12}Setup::SetHistogramDefaults(int nbins, double min\_bin, double max\_bin);}{28}}
\newlabel{appendix.S.SetHistDefaults}{{A.2.12}{28}}
\@writefile{toc}{\contentsline {subsubsection}{\numberline {A.2.13}Setup::gen1\_path}{28}}
\@writefile{toc}{\contentsline {subsubsection}{\numberline {A.2.14}Setup::gen2\_path}{29}}
\@writefile{toc}{\contentsline {subsubsection}{\numberline {A.2.15}Setup::user\_analysis}{29}}
\@writefile{toc}{\contentsline {subsubsection}{\numberline {A.2.16}Setup::user\_event\_analysis}{29}}
\@writefile{toc}{\contentsline {subsubsection}{\numberline {A.2.17}Setup::SuppressDecay(int pdg);}{29}}
\newlabel{option:SuppressDecay}{{A.2.17}{29}}
\@writefile{toc}{\contentsline {subsection}{\numberline {A.3} {\tt  F77} interface of {\tt  MC-TESTER}.}{30}}
\newlabel{appendix.F77}{{A.3}{30}}
\newlabel{SETUP_in_F77}{{A.3.1}{30}}
\@writefile{toc}{\contentsline {subsubsection}{\numberline {A.3.1}\texttt  {SUBROUTINE MCSETUP( WHAT, VALUE) }}{30}}
\@writefile{toc}{\contentsline {subsubsection}{\numberline {A.3.2}\texttt  {SUBROUTINE MCSETUPHBINS(VALUE) }}{30}}
\@writefile{toc}{\contentsline {subsubsection}{\numberline {A.3.3}\texttt  {SUBROUTINE MCSETUPHMIN(VALUE) }}{30}}
\@writefile{toc}{\contentsline {subsubsection}{\numberline {A.3.4}\texttt  {SUBROUTINE MCSETUPHMAX(VALUE) }}{31}}
\@writefile{toc}{\contentsline {subsubsection}{\numberline {A.3.5}\texttt  {SUBROUTINE MCSETUPHIST(NBODY,NHIST,NBINS,MINBIN,MAXBIN) }}{31}}
\@setckpt{appendix}{
\setcounter{page}{32}
\setcounter{equation}{10}
\setcounter{enumi}{7}
\setcounter{enumii}{0}
\setcounter{enumiii}{0}
\setcounter{enumiv}{0}
\setcounter{footnote}{7}
\setcounter{mpfootnote}{0}
\setcounter{part}{0}
\setcounter{section}{1}
\setcounter{subsection}{3}
\setcounter{subsubsection}{5}
\setcounter{paragraph}{0}
\setcounter{subparagraph}{0}
\setcounter{figure}{8}
\setcounter{table}{1}
\setcounter{parentequation}{0}
\setcounter{subfigure}{0}
\setcounter{lofdepth}{1}
\setcounter{subtable}{0}
\setcounter{lotdepth}{1}
}
