%!PS-Adobe-2.0 EPSF-2.0
%%BoundingBox:  0 0 567 354
%%Title: ./booklet/W+.TO.gamma.nu@mu.mu+./M1@0002.eps: Comparison of Mass(1) of gamma mu+ in channel W+ => gamma nu_mu mu+ 
%%Creator: ROOT Version 5.14/00e
%%CreationDate: Wed Nov  5 20:37:24 2008
%%EndComments
%%BeginProlog
80 dict begin
/s {stroke} def /l {lineto} def /m {moveto} def /t {translate} def
/sw {stringwidth} def /r {rotate} def /rl {roll}  def /R {repeat} def
/d {rlineto} def /rm {rmoveto} def /gr {grestore} def /f {eofill} def
/c {setrgbcolor} def /black {0 setgray} def /sd {setdash} def
/cl {closepath} def /sf {scalefont setfont} def /lw {setlinewidth} def
/box {m dup 0 exch d exch 0 d 0 exch neg d cl} def
/NC{systemdict begin initclip end}def/C{NC box clip newpath}def
/bl {box s} def /bf {box f} def /Y { 0 exch d} def /X { 0 d} def 
/mp {newpath /y exch def /x exch def} def
/side {[w .77 mul w .23 mul] .385 w mul sd w 0 l currentpoint t -144 r} def
/mr {mp x y w2 0 360 arc} def /m24 {mr s} def /m20 {mr f} def
/mb {mp x y w2 add m w2 neg 0 d 0 w neg d w 0 d 0 w d cl} def
/mt {mp x y w2 add m w2 neg w neg d w 0 d cl} def
/m21 {mb f} def /m25 {mb s} def /m22 {mt f} def /m26{mt s} def
/m23 {mp x y w2 sub m w2 w d w neg 0 d cl f} def
/m27 {mp x y w2 add m w3 neg w2 neg d w3 w2 neg d w3 w2 d cl s} def
/m28 {mp x w2 sub y w2 sub w3 add m w3 0 d  0 w3 neg d w3 0 d 0 w3 d w3 0 d  0 w3 d w3 neg 0 d 0 w3 d w3 neg 0 d
 0 w3 neg d w3 neg 0 d cl s } def
/m29 {mp gsave x w2 sub y w2 add w3 sub m currentpoint t
 4 {side} repeat cl fill gr} def
/m30 {mp gsave x w2 sub y w2 add w3 sub m currentpoint t
 4 {side} repeat cl s gr} def
/m31 {mp x y w2 sub m 0 w d x w2 sub y m w 0 d x w2 sub y w2 add m w w neg d x w2 sub y w2
 sub m w w d s} def
/m2 {mp x y w2 sub m 0 w d x w2 sub y m w 0 d s} def
/m5 {mp x w2 sub y w2 sub m w w d x w2 sub y w2 add m w w neg d s} def
/reencdict 24 dict def /ReEncode {reencdict begin /nco&na exch def
/nfnam exch def /basefontname exch def /basefontdict basefontname findfont def
/newfont basefontdict maxlength dict def basefontdict {exch dup /FID ne
{dup /Encoding eq {exch dup length array copy newfont 3 1 roll put} {exch 
newfont 3 1 roll put} ifelse} {pop pop} ifelse } forall newfont
/FontName nfnam put nco&na aload pop nco&na length 2 idiv {newfont
/Encoding get 3 1 roll put} repeat nfnam newfont definefont pop end } def
/accvec [ 176 /agrave 181 /Agrave 190 /acircumflex 192 /Acircumflex
201 /adieresis 204 /Adieresis 209 /ccedilla 210 /Ccedilla 211 /eacute
212 /Eacute 213 /egrave 214 /Egrave 215 /ecircumflex 216 /Ecircumflex
217 /edieresis 218 /Edieresis 219 /icircumflex 220 /Icircumflex
221 /idieresis 222 /Idieresis 223 /ntilde 224 /Ntilde 226 /ocircumflex
228 /Ocircumflex 230 /Odieresis 231 /ucircumflex 236 /Ucircumflex
237 /udieresis 238 /Udieresis 239 /aring 240 /odieresis 242 /Aring 243 /ydieresis
244 /Ydieresis 246 /aacute 247 /Aacute 252 /ugrave 253 /Ugrave
127 /atilde 128 /Atilde 129 /oacute 130 /Oacute 131 /iacute
132 /Iacute 133 /igrave 134 /Igrave 135 /otilde 136 /Otilde
137 /uacute 138 /Uacute] def
/Times-Roman /Times-Roman accvec ReEncode
/Times-Italic /Times-Italic accvec ReEncode
/Times-Bold /Times-Bold accvec ReEncode
/Times-BoldItalic /Times-BoldItalic accvec ReEncode
/Helvetica /Helvetica accvec ReEncode
/Helvetica-Oblique /Helvetica-Oblique accvec ReEncode
/Helvetica-Bold /Helvetica-Bold accvec ReEncode
/Helvetica-BoldOblique /Helvetica-BoldOblique  accvec ReEncode
/Courier /Courier accvec ReEncode
/Courier-Oblique /Courier-Oblique accvec ReEncode
/Courier-Bold /Courier-Bold accvec ReEncode
/Courier-BoldOblique /Courier-BoldOblique accvec ReEncode
/oshow {gsave [] 0 sd true charpath stroke gr} def
/stwn { /fs exch def /fn exch def /text exch def fn findfont fs sf
 text sw pop xs add /xs exch def} def
/stwb { /fs exch def /fn exch def /nbas exch def /textf exch deftextf length /tlen exch def nbas tlen gt {/nbas tlendef} iffn findfont fs sf textf dup length nbas sub nbas getinterval sw
pop neg xs add /xs exch def} def
/accspe [ 65 /plusminus  66 /bar  67 /existential  68 /universal 
69 /exclam  70 /numbersign 71 /greater  72 /question  73 /integral 
74 /colon  75 /semicolon  76 /less  77 /bracketleft  78 /bracketright
79 /greaterequal 80 /braceleft 81 /braceright 82 /radical
83 /spade 84 /heart 85 /diamond 86 /club 87 /lessequal
88 /multiply 89 /percent 90 /infinity 48 /circlemultiply 49 /circleplus
50 /emptyset  51 /lozenge 52 /bullet 53 /arrowright 54 /arrowup
55 /arrowleft 56 /arrowdown 57 /arrowboth 48 /degree 44 /comma 43 /plus 45 /angle 42 /angleleft 47 /divide 61 /notequal 40 /equivalence 41 /second 97 /approxequal 98 /congruent 99 /perpendicular 100 /partialdiff 101 /florin 102 /intersection
 103 /union 104 /propersuperset 105 /reflexsuperset 106 /notsubset 107 /propersubset 108 /reflexsubset 109 /element 110 /notelement 111 /gradient 112 /logicaland 113 /logicalor 114 /arrowdblboth 115 /arrowdblleft 116 /arrowdblup 117 /arrowdblright
 118 /arrowdbldown 119 /ampersand 120 /omega1 121 /similar 122 /aleph ] def
/Symbol /Special accspe ReEncode
%%EndProlog
%%BeginSetup
%%EndSetup
newpath  gsave  .25 .25 scale  gsave  0 0 t black[  ] 0 sd 3 lw 0.999 0.999 0.999 c 2268 1415 0 0 bf 1 1 1 c 0 0 m 8 8 d 1399 Y 2252 X 8 8 d -2268 X -1415 Y f 0.999 0.999 0.999 c 0 0 m 8 8 d 2252 X 1399 Y 8 8 d -1415 Y -2268 X f black 0.999 0.999
 0.999 c 1814 1132 227 142 bf 1 1 1 c 227 142 m 4 4 d 1124 Y 1806 X 4 4 d -1814 X -1132 Y f 0.999 0.999 0.999 c 227 142 m 4 4 d 1806 X 1124 Y 4 4 d -1132 Y -1814 X f black 1814 1132 227 142 bl 1 1 1 c black 227 1194 m 121 X 1 Y 75 X 1 Y 15 X 1 Y 16
 X 1 Y 45 X 1 Y 30 X 1 Y 15 X 2 Y 15 X -1 Y 15 X 2 Y 46 X 1 Y 15 X 2 Y 30 X 2 Y 30 X 1 Y 31 X 4 Y 15 X -2 Y 15 X 1 Y 30 X 1 Y 15 X 7 Y 15 X -5 Y 15 X 4 Y 16 X -2 Y 15 X -5 Y 15 X 5 Y 15 X -7 Y 15 X -3 Y 15 X 2 Y 15 X -6 Y 15 X 7 Y 16 X -1 Y 15 X -8
 Y 15 X -1 Y 15 X -8 Y 15 X -2 Y 15 X 5 Y 15 X -4 Y 15 X -25 Y 16 X -13 Y 15 X 2 Y 15 X 12 Y 15 X -39 Y 15 X -1 Y 15 X -15 Y 15 X 14 Y 15 X -44 Y 15 X -9 Y 16 X 5 Y 15 X -42 Y 15 X -3 Y 15 X -15 Y 15 X -14 Y 15 X -26 Y 15 X -47 Y 15 X -17 Y 16 X -89
 Y 15 X -46 Y 15 X 67 Y 15 X -60 Y 15 X 17 Y 15 X -64 Y 15 X -134 Y 15 X 101 Y 15 X -128 Y 16 X -126 Y 15 X 86 Y 15 X 8 Y 15 X -38 Y 15 X -115 Y 15 X 5 Y 15 X -132 Y 15 X -62 Y 16 X -62 Y 438 X s 227 142 m 1814 X s 227 176 m -34 Y s 263 159 m -17 Y
 s 299 159 m -17 Y s 336 159 m -17 Y s 372 159 m -17 Y s 408 176 m -34 Y s 444 159 m -17 Y s 481 159 m -17 Y s 517 159 m -17 Y s 553 159 m -17 Y s 590 176 m -34 Y s 626 159 m -17 Y s 662 159 m -17 Y s 698 159 m -17 Y s 735 159 m -17 Y s 771 176 m
 -34 Y s 807 159 m -17 Y s 844 159 m -17 Y s 880 159 m -17 Y s 916 159 m -17 Y s 952 176 m -34 Y s 989 159 m -17 Y s 1025 159 m -17 Y s 1061 159 m -17 Y s 1098 159 m -17 Y s 1134 176 m -34 Y s 1170 159 m -17 Y s 1206 159 m -17 Y s 1243 159 m -17 Y s
 1279 159 m -17 Y s 1315 176 m -34 Y s 1352 159 m -17 Y s 1388 159 m -17 Y s 1424 159 m -17 Y s 1460 159 m -17 Y s 1497 176 m -34 Y s 1533 159 m -17 Y s 1569 159 m -17 Y s 1606 159 m -17 Y s 1642 159 m -17 Y s 1678 176 m -34 Y s 1714 159 m -17 Y s
 1751 159 m -17 Y s 1787 159 m -17 Y s 1823 159 m -17 Y s 1860 176 m -34 Y s 1896 159 m -17 Y s 1932 159 m -17 Y s 1968 159 m -17 Y s 2005 159 m -17 Y s 2041 176 m -34 Y s
 gsave  2268 1415 0 0 C 209 91 t 0 r /Helvetica-Bold findfont 53.2685 sf 0 0 m (0) show NC gr 
 gsave  2268 1415 0 0 C 377 91 t 0 r /Helvetica-Bold findfont 53.2685 sf 0 0 m (10) show NC gr 
 gsave  2268 1415 0 0 C 556 91 t 0 r /Helvetica-Bold findfont 53.2685 sf 0 0 m (20) show NC gr 
 gsave  2268 1415 0 0 C 738 91 t 0 r /Helvetica-Bold findfont 53.2685 sf 0 0 m (30) show NC gr 
 gsave  2268 1415 0 0 C 921 91 t 0 r /Helvetica-Bold findfont 53.2685 sf 0 0 m (40) show NC gr 
 gsave  2268 1415 0 0 C 1103 91 t 0 r /Helvetica-Bold findfont 53.2685 sf 0 0 m (50) show NC gr 
 gsave  2268 1415 0 0 C 1282 91 t 0 r /Helvetica-Bold findfont 53.2685 sf 0 0 m (60) show NC gr 
 gsave  2268 1415 0 0 C 1465 91 t 0 r /Helvetica-Bold findfont 53.2685 sf 0 0 m (70) show NC gr 
 gsave  2268 1415 0 0 C 1648 91 t 0 r /Helvetica-Bold findfont 53.2685 sf 0 0 m (80) show NC gr 
 gsave  2268 1415 0 0 C 1826 91 t 0 r /Helvetica-Bold findfont 53.2685 sf 0 0 m (90) show NC gr 
 gsave  2268 1415 0 0 C 1994 91 t 0 r /Helvetica-Bold findfont 53.2685 sf 0 0 m (100) show NC gr  227 142 m 1132 Y s 281 142 m -54 X s 254 194 m -27 X s 254 247 m -27 X s 254 299 m -27 X s 281 352 m -54 X s 254 405 m -27 X s 254 457 m -27 X s 254
 510 m -27 X s 281 563 m -54 X s 254 615 m -27 X s 254 668 m -27 X s 254 721 m -27 X s 281 773 m -54 X s 254 826 m -27 X s 254 879 m -27 X s 254 931 m -27 X s 281 984 m -54 X s 254 1036 m -27 X s 254 1089 m -27 X s 254 1142 m -27 X s 281 1194 m -54
 X s 281 1194 m -54 X s 254 1247 m -27 X s
 gsave  2268 1415 0 0 C 183 122 t 0 r /Helvetica-Bold findfont 53.2685 sf 0 0 m (0) show NC gr 
 gsave  2268 1415 0 0 C 141 331 t 0 r /Helvetica-Bold findfont 53.2685 sf 0 0 m (0.2) show NC gr 
 gsave  2268 1415 0 0 C 137 540 t 0 r /Helvetica-Bold findfont 53.2685 sf 0 0 m (0.4) show NC gr 
 gsave  2268 1415 0 0 C 141 753 t 0 r /Helvetica-Bold findfont 53.2685 sf 0 0 m (0.6) show NC gr 
 gsave  2268 1415 0 0 C 141 963 t 0 r /Helvetica-Bold findfont 53.2685 sf 0 0 m (0.8) show NC gr 
 gsave  2268 1415 0 0 C 190 1168 t 0 r /Helvetica-Bold findfont 53.2685 sf 0 0 m (1) show NC gr  0.95 0.95 0.95 c 1587 77 23 1331 bf black 34 1331 m -8 Y 1584 X 74 Y -8 X -66 Y f 23 1331 m 77 Y 1587 X -77 Y -1587 X cl s 1 1 1 c black
 gsave  2268 1415 0 0 C 42 1355 t 0 r /Helvetica-Bold findfont 41.8538 sf 0 0 m (Comparison of Mass\(1\) of gamma mu+ in channel W+ => gamma nu_mu mu+ ) show NC gr  1 0 0 c 1 1 1 c black 1 0 0 c 227 1122 m 15 X -87 Y 15 X -36 Y 15 X -22 Y 15 X -18 Y
 15 X -15 Y 15 X -13 Y 16 X -12 Y 15 X -11 Y 15 X -11 Y 15 X -10 Y 15 X -10 Y 15 X -10 Y 15 X -8 Y 15 X -9 Y 16 X -8 Y 15 X -8 Y 15 X -6 Y 15 X -8 Y 15 X -6 Y 15 X -7 Y 15 X -7 Y 15 X -6 Y 15 X -7 Y 16 X -6 Y 15 X -5 Y 15 X -5 Y 15 X -7 Y 15 X -5 Y
 15 X -7 Y 15 X -4 Y 15 X -6 Y 16 X -4 Y 15 X -7 Y 15 X -7 Y 15 X -4 Y 15 X -5 Y 15 X -5 Y 15 X -7 Y 15 X -4 Y 15 X -6 Y 16 X -6 Y 15 X -5 Y 15 X -3 Y 15 X -7 Y 15 X -7 Y 15 X -3 Y 15 X -6 Y 15 X -5 Y 16 X -5 Y 15 X -7 Y 15 X -4 Y 15 X -5 Y 15 X -5
 Y 15 X -6 Y 15 X -6 Y 15 X -7 Y 16 X -8 Y 15 X -5 Y 15 X -4 Y 15 X -7 Y 15 X -9 Y 15 X -5 Y 15 X -7 Y 15 X -8 Y 15 X -4 Y 16 X -7 Y 15 X -9 Y 15 X -3 Y 15 X -13 Y 15 X -7 Y 15 X -3 Y 15 X -15 Y 15 X -7 Y 16 X -11 Y 15 X -17 Y 15 X 3 Y 15 X -21 Y 15
 X -13 Y 15 X 3 Y 15 X -39 Y 15 X 7 Y 15 X -16 Y 16 X -35 Y 15 X -2 Y 15 X -3 Y 15 X -19 Y 15 X -34 Y 15 X -14 Y 15 X -88 Y 15 X -44 Y 454 X s 0 1 0 c 1 1 1 c black 0 1 0 c 227 1122 m 15 X -87 Y 15 X -35 Y 15 X -23 Y 15 X -18 Y 15 X -14 Y 15 X -13 Y
 16 X -12 Y 15 X -12 Y 15 X -10 Y 15 X -11 Y 15 X -10 Y 15 X -10 Y 15 X -8 Y 15 X -9 Y 16 X -8 Y 15 X -8 Y 15 X -6 Y 15 X -8 Y 15 X -6 Y 15 X -7 Y 15 X -7 Y 15 X -6 Y 15 X -7 Y 16 X -6 Y 15 X -6 Y 15 X -5 Y 15 X -6 Y 15 X -5 Y 15 X -8 Y 15 X -4 Y 15
 X -6 Y 16 X -4 Y 15 X -7 Y 15 X -6 Y 15 X -4 Y 15 X -6 Y 15 X -5 Y 15 X -7 Y 15 X -4 Y 15 X -6 Y 16 X -6 Y 15 X -5 Y 15 X -3 Y 15 X -7 Y 15 X -7 Y 15 X -3 Y 15 X -6 Y 15 X -5 Y 16 X -5 Y 15 X -6 Y 15 X -4 Y 15 X -5 Y 15 X -5 Y 15 X -6 Y 15 X -6 Y
 15 X -5 Y 16 X -7 Y 15 X -5 Y 15 X -5 Y 15 X -5 Y 15 X -9 Y 15 X -4 Y 15 X -8 Y 15 X -5 Y 15 X -3 Y 16 X -8 Y 15 X -5 Y 15 X -3 Y 15 X -12 Y 15 X -6 Y 15 X -1 Y 15 X -12 Y 15 X -5 Y 16 X -4 Y 15 X -12 Y 15 X -4 Y 15 X -14 Y 15 X -15 Y 15 X 9 Y 15 X
 -22 Y 15 X -7 Y 15 X 1 Y 16 X -13 Y 15 X -18 Y 15 X -4 Y 15 X -13 Y 15 X -10 Y 15 X -15 Y 15 X -42 Y 31 X -28 Y 15 X -6 Y 15 X -77 Y 15 X -69 Y 15 X 69 Y 15 X -69 Y 363 X s 1 0 0 c 2041 142 m 1078 Y s 1989 142 m 52 X s black
 gsave  2268 1415 0 0 C 2068 120 t 0 r /Helvetica-Bold findfont 53.2685 sf 0 0 m (1) show NC gr  1 0 0 c 2015 406 m 26 X s 2015 560 m 26 X s 2015 670 m 26 X s 2015 755 m 26 X s 2015 824 m 26 X s 2015 883 m 26 X s 2015 934 m 26 X s 2015 979 m 26 X s
 1989 1019 m 52 X s black
 gsave  2268 1415 0 0 C 2068 998 t 0 r /Helvetica-Bold findfont 53.2685 sf 0 0 m (10) show NC gr  1 1 0 c 476 155 1565 1246 bf 1 1 0.2 c 1565 1246 m 8 8 d 139 Y 460 X 8 8 d -476 X -155 Y f 0.7 0.7 0 c 1565 1246 m 8 8 d 460 X 139 Y 8 8 d -155 Y -476
 X f black
 gsave  476 155 1565 1246 C 1636 1339 t 0 r /Times-Bold findfont 58.3861 sf 0 0 m (SDP) show NC gr 
 gsave  476 155 1565 1246 C 1609 1256 t 0 r /Helvetica-Bold findfont 81.7405 sf 0 0 m (3.09e-05) show NC gr  0.95 0.95 0.95 c 1587 77 23 1331 bf black 34 1331 m -8 Y 1584 X 74 Y -8 X -66 Y f 23 1331 m 77 Y 1587 X -77 Y -1587 X cl s 1 1 1 c black
 gsave  2268 1415 0 0 C 42 1355 t 0 r /Helvetica-Bold findfont 41.8538 sf 0 0 m (Comparison of Mass\(1\) of gamma mu+ in channel W+ => gamma nu_mu mu+ ) show NC gr 
 gr  gr 
showpage
end
%%EOF
